%YAML 1.1
%TAG !u! tag:unity3d.com,2011:
--- !u!21 &2100000
Material:
  serializedVersion: 6
  m_ObjectHideFlags: 0
  m_PrefabParentObject: {fileID: 0}
  m_PrefabInternal: {fileID: 0}
  m_Name: M_Bear2
  m_Shader: {fileID: 4800000, guid: d70fd2b7e3dd63943b0a063212ed6c17, type: 3}
  m_ShaderKeywords: 
  m_LightmapFlags: 0
  m_EnableInstancingVariants: 0
  m_DoubleSidedGI: 0
  m_CustomRenderQueue: -1
  stringTagMap: {}
  disabledShaderPasses: []
  m_SavedProperties:
    serializedVersion: 3
    m_TexEnvs:
    - _Bear_Base_Color:
        m_Texture: {fileID: 2800000, guid: 1bda14ce42bc2164eb0b38342dd69b5d, type: 3}
        m_Scale: {x: 1, y: 1}
        m_Offset: {x: 0, y: 0}
    - _Bear_Mixed_AO:
        m_Texture: {fileID: 2800000, guid: 23f3c48af5d2f17449f9d6d2b0b93c2a, type: 3}
        m_Scale: {x: 1, y: 1}
        m_Offset: {x: 0, y: 0}
    - _Bear_Normal_OpenGL:
        m_Texture: {fileID: 2800000, guid: 9d3913ebf28d21b40b2e2c79c6b967ca, type: 3}
        m_Scale: {x: 1, y: 1}
        m_Offset: {x: 0, y: 0}
    - _Bear_Shirt_Mask:
        m_Texture: {fileID: 2800000, guid: 6150debf9b52f64468413cf0f0b77c0a, type: 3}
        m_Scale: {x: 1, y: 1}
        m_Offset: {x: 0, y: 0}
    - _Bear_Stripes_Mask:
        m_Texture: {fileID: 2800000, guid: 58cbe800f323ffc4ea751f704a9ac988, type: 3}
        m_Scale: {x: 1, y: 1}
        m_Offset: {x: 0, y: 0}
    - _MainTex:
        m_Texture: {fileID: 0}
        m_Scale: {x: 1, y: 1}
        m_Offset: {x: 0, y: 0}
    - _texcoord:
        m_Texture: {fileID: 0}
        m_Scale: {x: 1, y: 1}
        m_Offset: {x: 0, y: 0}
    m_Floats:
    - _Emission: 0.5
    - _Glossiness: 0.5
    - _Metallic: 0
    - __dirty: 0
    m_Colors:
    - _BearColour: {r: 0, g: 1, b: 1, a: 0}
    - _Color: {r: 1, g: 1, b: 1, a: 1}
    - _ShirtColour: {r: 0, g: 1, b: 0.7725491, a: 0}
    - _StripeColour: {r: 0.07947663, g: 0.77205884, b: 0.61453044, a: 0}
