%YAML 1.1
%TAG !u! tag:unity3d.com,2011:
--- !u!21 &2100000
Material:
  serializedVersion: 6
  m_ObjectHideFlags: 0
  m_PrefabParentObject: {fileID: 0}
  m_PrefabInternal: {fileID: 0}
  m_Name: GRADIENT
  m_Shader: {fileID: 4800000, guid: d6a7e05f91db90046aa7fdb2eba16920, type: 3}
  m_ShaderKeywords: 
  m_LightmapFlags: 0
  m_EnableInstancingVariants: 1
  m_DoubleSidedGI: 0
  m_CustomRenderQueue: 3005
  stringTagMap: {}
  disabledShaderPasses: []
  m_SavedProperties:
    serializedVersion: 3
    m_TexEnvs:
    - _Noise:
        m_Texture: {fileID: 2800000, guid: 7e340e501ed86684c82966019e16d07b, type: 3}
        m_Scale: {x: 1, y: 1}
        m_Offset: {x: 0, y: 0}
    - _TextureSample0:
        m_Texture: {fileID: 2800000, guid: afb1e7b71f00bf547bac30a36ebc4a57, type: 3}
        m_Scale: {x: 1, y: 1}
        m_Offset: {x: 0, y: 0}
    - _texcoord:
        m_Texture: {fileID: 0}
        m_Scale: {x: 1, y: 1}
        m_Offset: {x: 0, y: 0}
    m_Floats:
    - __dirty: 0
    m_Colors:
    - _BaseColor: {r: 0.11724138, g: 1, b: 0, a: 1}
    - _Color0: {r: 0.15630619, g: 2.060397, b: 0, a: 1}
    - _EmissiveColor: {r: 0.2570207, g: 2.1922355, b: 0, a: 1}
    - _MainColor: {r: 0, g: 1.25, b: 0.11206895, a: 1}
